%YAML 1.1
%TAG !u! tag:unity3d.com,2011:
--- !u!29 &1
OcclusionCullingSettings:
  m_ObjectHideFlags: 0
  serializedVersion: 2
  m_OcclusionBakeSettings:
    smallestOccluder: 5
    smallestHole: 0.25
    backfaceThreshold: 100
  m_SceneGUID: 00000000000000000000000000000000
  m_OcclusionCullingData: {fileID: 0}
--- !u!104 &2
RenderSettings:
  m_ObjectHideFlags: 0
  serializedVersion: 9
  m_Fog: 0
  m_FogColor: {r: 0.5, g: 0.5, b: 0.5, a: 1}
  m_FogMode: 3
  m_FogDensity: 0.01
  m_LinearFogStart: 0
  m_LinearFogEnd: 300
  m_AmbientSkyColor: {r: 0.212, g: 0.227, b: 0.259, a: 1}
  m_AmbientEquatorColor: {r: 0.114, g: 0.125, b: 0.133, a: 1}
  m_AmbientGroundColor: {r: 0.047, g: 0.043, b: 0.035, a: 1}
  m_AmbientIntensity: 1
  m_AmbientMode: 3
  m_SubtractiveShadowColor: {r: 0.42, g: 0.478, b: 0.627, a: 1}
  m_SkyboxMaterial: {fileID: 0}
  m_HaloStrength: 0.5
  m_FlareStrength: 1
  m_FlareFadeSpeed: 3
  m_HaloTexture: {fileID: 0}
  m_SpotCookie: {fileID: 10001, guid: 0000000000000000e000000000000000, type: 0}
  m_DefaultReflectionMode: 0
  m_DefaultReflectionResolution: 128
  m_ReflectionBounces: 1
  m_ReflectionIntensity: 1
  m_CustomReflection: {fileID: 0}
  m_Sun: {fileID: 0}
  m_IndirectSpecularColor: {r: 0, g: 0, b: 0, a: 1}
  m_UseRadianceAmbientProbe: 0
--- !u!157 &3
LightmapSettings:
  m_ObjectHideFlags: 0
  serializedVersion: 12
  m_GIWorkflowMode: 1
  m_GISettings:
    serializedVersion: 2
    m_BounceScale: 1
    m_IndirectOutputScale: 1
    m_AlbedoBoost: 1
    m_EnvironmentLightingMode: 0
    m_EnableBakedLightmaps: 0
    m_EnableRealtimeLightmaps: 0
  m_LightmapEditorSettings:
    serializedVersion: 12
    m_Resolution: 2
    m_BakeResolution: 40
    m_AtlasSize: 1024
    m_AO: 0
    m_AOMaxDistance: 1
    m_CompAOExponent: 0
    m_CompAOExponentDirect: 0
    m_ExtractAmbientOcclusion: 0
    m_Padding: 2
    m_LightmapParameters: {fileID: 0}
    m_LightmapsBakeMode: 1
    m_TextureCompression: 1
    m_FinalGather: 0
    m_FinalGatherFiltering: 1
    m_FinalGatherRayCount: 1024
    m_ReflectionCompression: 2
    m_MixedBakeMode: 1
    m_BakeBackend: 0
    m_PVRSampling: 1
    m_PVRDirectSampleCount: 32
    m_PVRSampleCount: 500
    m_PVRBounces: 2
    m_PVREnvironmentSampleCount: 500
    m_PVREnvironmentReferencePointCount: 2048
    m_PVRFilteringMode: 0
    m_PVRDenoiserTypeDirect: 0
    m_PVRDenoiserTypeIndirect: 0
    m_PVRDenoiserTypeAO: 0
    m_PVRFilterTypeDirect: 0
    m_PVRFilterTypeIndirect: 0
    m_PVRFilterTypeAO: 0
    m_PVREnvironmentMIS: 0
    m_PVRCulling: 1
    m_PVRFilteringGaussRadiusDirect: 1
    m_PVRFilteringGaussRadiusIndirect: 5
    m_PVRFilteringGaussRadiusAO: 2
    m_PVRFilteringAtrousPositionSigmaDirect: 0.5
    m_PVRFilteringAtrousPositionSigmaIndirect: 2
    m_PVRFilteringAtrousPositionSigmaAO: 1
    m_ExportTrainingData: 0
    m_TrainingDataDestination: TrainingData
    m_LightProbeSampleCountMultiplier: 4
  m_LightingDataAsset: {fileID: 0}
  m_LightingSettings: {fileID: 4890085278179872738, guid: 8b7c943e77c786507b27f6679a48648e, type: 2}
--- !u!196 &4
NavMeshSettings:
  serializedVersion: 2
  m_ObjectHideFlags: 0
  m_BuildSettings:
    serializedVersion: 2
    agentTypeID: 0
    agentRadius: 0.5
    agentHeight: 2
    agentSlope: 45
    agentClimb: 0.4
    ledgeDropHeight: 0
    maxJumpAcrossDistance: 0
    minRegionArea: 2
    manualCellSize: 0
    cellSize: 0.16666667
    manualTileSize: 0
    tileSize: 256
    accuratePlacement: 0
    maxJobWorkers: 0
    preserveTilesOutsideBounds: 0
    debug:
      m_Flags: 0
  m_NavMeshData: {fileID: 0}
--- !u!1 &126164573
GameObject:
  m_ObjectHideFlags: 0
  m_CorrespondingSourceObject: {fileID: 0}
  m_PrefabInstance: {fileID: 0}
  m_PrefabAsset: {fileID: 0}
  serializedVersion: 6
  m_Component:
  - component: {fileID: 126164574}
  - component: {fileID: 126164577}
  - component: {fileID: 126164576}
  - component: {fileID: 126164575}
  m_Layer: 0
  m_Name: Player
  m_TagString: Untagged
  m_Icon: {fileID: 0}
  m_NavMeshLayer: 0
  m_StaticEditorFlags: 0
  m_IsActive: 1
--- !u!4 &126164574
Transform:
  m_ObjectHideFlags: 0
  m_CorrespondingSourceObject: {fileID: 0}
  m_PrefabInstance: {fileID: 0}
  m_PrefabAsset: {fileID: 0}
  m_GameObject: {fileID: 126164573}
  m_LocalRotation: {x: -0, y: -0, z: -0, w: 1}
  m_LocalPosition: {x: -2.5, y: 6.2, z: -141}
  m_LocalScale: {x: 5, y: 5, z: 5}
  m_Children: []
  m_Father: {fileID: 219125336}
  m_RootOrder: 0
  m_LocalEulerAnglesHint: {x: 0, y: 0, z: 0}
--- !u!135 &126164575
SphereCollider:
  m_ObjectHideFlags: 0
  m_CorrespondingSourceObject: {fileID: 0}
  m_PrefabInstance: {fileID: 0}
  m_PrefabAsset: {fileID: 0}
  m_GameObject: {fileID: 126164573}
  m_Material: {fileID: 0}
  m_IsTrigger: 0
  m_Enabled: 1
  serializedVersion: 2
  m_Radius: 0.5
  m_Center: {x: 0, y: 0, z: 0}
--- !u!23 &126164576
MeshRenderer:
  m_ObjectHideFlags: 0
  m_CorrespondingSourceObject: {fileID: 0}
  m_PrefabInstance: {fileID: 0}
  m_PrefabAsset: {fileID: 0}
  m_GameObject: {fileID: 126164573}
  m_Enabled: 1
  m_CastShadows: 1
  m_ReceiveShadows: 1
  m_DynamicOccludee: 1
  m_MotionVectors: 1
  m_LightProbeUsage: 1
  m_ReflectionProbeUsage: 1
  m_RayTracingMode: 2
  m_RayTraceProcedural: 0
  m_RenderingLayerMask: 1
  m_RendererPriority: 0
  m_Materials:
  - {fileID: 2100000, guid: fdc00228f05cd4dc597066040f2a56b1, type: 2}
  m_StaticBatchInfo:
    firstSubMesh: 0
    subMeshCount: 0
  m_StaticBatchRoot: {fileID: 0}
  m_ProbeAnchor: {fileID: 0}
  m_LightProbeVolumeOverride: {fileID: 0}
  m_ScaleInLightmap: 1
  m_ReceiveGI: 1
  m_PreserveUVs: 0
  m_IgnoreNormalsForChartDetection: 0
  m_ImportantGI: 0
  m_StitchLightmapSeams: 0
  m_SelectedEditorRenderState: 3
  m_MinimumChartSize: 4
  m_AutoUVMaxDistance: 0.5
  m_AutoUVMaxAngle: 89
  m_LightmapParameters: {fileID: 0}
  m_SortingLayerID: 0
  m_SortingLayer: 0
  m_SortingOrder: 0
  m_AdditionalVertexStreams: {fileID: 0}
--- !u!33 &126164577
MeshFilter:
  m_ObjectHideFlags: 0
  m_CorrespondingSourceObject: {fileID: 0}
  m_PrefabInstance: {fileID: 0}
  m_PrefabAsset: {fileID: 0}
  m_GameObject: {fileID: 126164573}
  m_Mesh: {fileID: 10207, guid: 0000000000000000e000000000000000, type: 0}
--- !u!1 &219125335
GameObject:
  m_ObjectHideFlags: 0
  m_CorrespondingSourceObject: {fileID: 0}
  m_PrefabInstance: {fileID: 0}
  m_PrefabAsset: {fileID: 0}
  serializedVersion: 6
  m_Component:
  - component: {fileID: 219125336}
  m_Layer: 0
  m_Name: Scene
  m_TagString: Untagged
  m_Icon: {fileID: 0}
  m_NavMeshLayer: 0
  m_StaticEditorFlags: 0
  m_IsActive: 1
--- !u!4 &219125336
Transform:
  m_ObjectHideFlags: 0
  m_CorrespondingSourceObject: {fileID: 0}
  m_PrefabInstance: {fileID: 0}
  m_PrefabAsset: {fileID: 0}
  m_GameObject: {fileID: 219125335}
  m_LocalRotation: {x: 0, y: 0, z: 0, w: 1}
  m_LocalPosition: {x: 0, y: 0, z: 0}
  m_LocalScale: {x: 1, y: 1, z: 1}
  m_Children:
  - {fileID: 126164574}
  - {fileID: 1611633509}
  m_Father: {fileID: 0}
  m_RootOrder: 5
  m_LocalEulerAnglesHint: {x: 0, y: 0, z: 0}
--- !u!1 &256011096
GameObject:
  m_ObjectHideFlags: 0
  m_CorrespondingSourceObject: {fileID: 0}
  m_PrefabInstance: {fileID: 0}
  m_PrefabAsset: {fileID: 0}
  serializedVersion: 6
  m_Component:
  - component: {fileID: 256011101}
  - component: {fileID: 256011100}
  - component: {fileID: 256011098}
  - component: {fileID: 256011097}
  m_Layer: 0
  m_Name: Main Camera
  m_TagString: MainCamera
  m_Icon: {fileID: 0}
  m_NavMeshLayer: 0
  m_StaticEditorFlags: 0
  m_IsActive: 1
--- !u!81 &256011097
AudioListener:
  m_ObjectHideFlags: 0
  m_CorrespondingSourceObject: {fileID: 0}
  m_PrefabInstance: {fileID: 0}
  m_PrefabAsset: {fileID: 0}
  m_GameObject: {fileID: 256011096}
  m_Enabled: 1
--- !u!124 &256011098
Behaviour:
  m_ObjectHideFlags: 0
  m_CorrespondingSourceObject: {fileID: 0}
  m_PrefabInstance: {fileID: 0}
  m_PrefabAsset: {fileID: 0}
  m_GameObject: {fileID: 256011096}
  m_Enabled: 1
--- !u!20 &256011100
Camera:
  m_ObjectHideFlags: 0
  m_CorrespondingSourceObject: {fileID: 0}
  m_PrefabInstance: {fileID: 0}
  m_PrefabAsset: {fileID: 0}
  m_GameObject: {fileID: 256011096}
  m_Enabled: 1
  serializedVersion: 2
  m_ClearFlags: 1
  m_BackGroundColor: {r: 0.19215687, g: 0.3019608, b: 0.4745098, a: 0.019607844}
  m_projectionMatrixMode: 1
  m_GateFitMode: 2
  m_FOVAxisMode: 0
  m_SensorSize: {x: 36, y: 24}
  m_LensShift: {x: 0, y: 0}
  m_FocalLength: 50
  m_NormalizedViewPortRect:
    serializedVersion: 2
    x: 0
    y: 0
    width: 1
    height: 1
  near clip plane: 0.3
  far clip plane: 1000
  field of view: 60
  orthographic: 0
  orthographic size: 5
  m_Depth: -1
  m_CullingMask:
    serializedVersion: 2
    m_Bits: 4294967295
  m_RenderingPath: -1
  m_TargetTexture: {fileID: 0}
  m_TargetDisplay: 0
  m_TargetEye: 3
  m_HDR: 0
  m_AllowMSAA: 1
  m_AllowDynamicResolution: 0
  m_ForceIntoRT: 0
  m_OcclusionCulling: 1
  m_StereoConvergence: 10
  m_StereoSeparation: 0.022
--- !u!4 &256011101
Transform:
  m_ObjectHideFlags: 0
  m_CorrespondingSourceObject: {fileID: 0}
  m_PrefabInstance: {fileID: 0}
  m_PrefabAsset: {fileID: 0}
  m_GameObject: {fileID: 256011096}
  m_LocalRotation: {x: 0.3716273, y: -0, z: -0, w: 0.92838204}
  m_LocalPosition: {x: 0, y: 150.3, z: -189.8}
  m_LocalScale: {x: 1, y: 1, z: 1}
  m_Children: []
  m_Father: {fileID: 0}
  m_RootOrder: 2
  m_LocalEulerAnglesHint: {x: 43.632004, y: 0, z: 0}
--- !u!1 &615066907
GameObject:
  m_ObjectHideFlags: 0
  m_CorrespondingSourceObject: {fileID: 0}
  m_PrefabInstance: {fileID: 0}
  m_PrefabAsset: {fileID: 0}
  serializedVersion: 6
  m_Component:
  - component: {fileID: 615066909}
  - component: {fileID: 615066908}
  m_Layer: 0
  m_Name: Point Light (1)
  m_TagString: Untagged
  m_Icon: {fileID: 0}
  m_NavMeshLayer: 0
  m_StaticEditorFlags: 0
  m_IsActive: 1
--- !u!108 &615066908
Light:
  m_ObjectHideFlags: 0
  m_CorrespondingSourceObject: {fileID: 0}
  m_PrefabInstance: {fileID: 0}
  m_PrefabAsset: {fileID: 0}
  m_GameObject: {fileID: 615066907}
  m_Enabled: 1
  serializedVersion: 10
  m_Type: 2
  m_Shape: 0
  m_Color: {r: 1, g: 1, b: 1, a: 1}
  m_Intensity: 1
  m_Range: 1000
  m_SpotAngle: 30
  m_InnerSpotAngle: 21.80208
  m_CookieSize: 10
  m_Shadows:
    m_Type: 1
    m_Resolution: -1
    m_CustomResolution: -1
    m_Strength: 1
    m_Bias: 0
    m_NormalBias: 1.04
    m_NearPlane: 1.32
    m_CullingMatrixOverride:
      e00: 1
      e01: 0
      e02: 0
      e03: 0
      e10: 0
      e11: 1
      e12: 0
      e13: 0
      e20: 0
      e21: 0
      e22: 1
      e23: 0
      e30: 0
      e31: 0
      e32: 0
      e33: 1
    m_UseCullingMatrixOverride: 0
  m_Cookie: {fileID: 0}
  m_DrawHalo: 0
  m_Flare: {fileID: 0}
  m_RenderMode: 0
  m_CullingMask:
    serializedVersion: 2
    m_Bits: 4294967295
  m_RenderingLayerMask: 1
  m_Lightmapping: 4
  m_LightShadowCasterMode: 0
  m_AreaSize: {x: 1, y: 1}
  m_BounceIntensity: 1
  m_ColorTemperature: 6570
  m_UseColorTemperature: 0
  m_BoundingSphereOverride: {x: 0, y: 0, z: 0, w: 0}
  m_UseBoundingSphereOverride: 0
  m_UseViewFrustumForShadowCasterCull: 1
  m_ShadowRadius: 0
  m_ShadowAngle: 0
--- !u!4 &615066909
Transform:
  m_ObjectHideFlags: 0
  m_CorrespondingSourceObject: {fileID: 0}
  m_PrefabInstance: {fileID: 0}
  m_PrefabAsset: {fileID: 0}
  m_GameObject: {fileID: 615066907}
  m_LocalRotation: {x: 0.12193072, y: -0.3478327, z: 0.06110167, w: 0.927584}
  m_LocalPosition: {x: 372, y: 243, z: -163}
  m_LocalScale: {x: 1, y: 1, z: 1}
  m_Children: []
  m_Father: {fileID: 0}
  m_RootOrder: 1
  m_LocalEulerAnglesHint: {x: 15.587001, y: -40.879, z: 1.697}
--- !u!1 &650979841
GameObject:
  m_ObjectHideFlags: 0
  m_CorrespondingSourceObject: {fileID: 0}
  m_PrefabInstance: {fileID: 0}
  m_PrefabAsset: {fileID: 0}
  serializedVersion: 6
  m_Component:
  - component: {fileID: 650979843}
  - component: {fileID: 650979842}
  m_Layer: 0
  m_Name: MoveCarScript
  m_TagString: Untagged
  m_Icon: {fileID: 0}
  m_NavMeshLayer: 0
  m_StaticEditorFlags: 0
  m_IsActive: 1
--- !u!114 &650979842
MonoBehaviour:
  m_ObjectHideFlags: 0
  m_CorrespondingSourceObject: {fileID: 0}
  m_PrefabInstance: {fileID: 0}
  m_PrefabAsset: {fileID: 0}
  m_GameObject: {fileID: 650979841}
  m_Enabled: 1
  m_EditorHideFlags: 0
  m_Script: {fileID: 11500000, guid: b331e8f90525a7f4692eb7a090fd3b21, type: 3}
  m_Name: 
  m_EditorClassIdentifier: 
  _camera: {fileID: 256011100}
  playerSpeed: 60
  autoRotateTowardsDestination: 1
  playerObj: {fileID: 126164573}
  playerFloatOffset: 2.5
  raycastOriginOffset: 50
  raycastDistanceFromOrigin: 100
  thoroughPathFinding: 1
  useGroundSnap: 1
  debugLogLevel: 0
  debugDrawLineDuration: 0
--- !u!4 &650979843
Transform:
  m_ObjectHideFlags: 0
  m_CorrespondingSourceObject: {fileID: 0}
  m_PrefabInstance: {fileID: 0}
  m_PrefabAsset: {fileID: 0}
  m_GameObject: {fileID: 650979841}
  m_LocalRotation: {x: -0, y: -0, z: -0, w: 1}
  m_LocalPosition: {x: 0, y: 0, z: 2}
  m_LocalScale: {x: 100, y: 100, z: 1}
  m_Children: []
  m_Father: {fileID: 0}
  m_RootOrder: 4
  m_LocalEulerAnglesHint: {x: 0, y: 0, z: 0}
--- !u!1001 &1049917158
PrefabInstance:
  m_ObjectHideFlags: 0
  serializedVersion: 2
  m_Modification:
    m_TransformParent: {fileID: 0}
    m_Modifications:
    - target: {fileID: 4489680339045900, guid: 9e3b072523c1f46e3b215aac8f1a447b, type: 3}
      propertyPath: m_RootOrder
      value: 3
      objectReference: {fileID: 0}
    - target: {fileID: 4489680339045900, guid: 9e3b072523c1f46e3b215aac8f1a447b, type: 3}
      propertyPath: m_LocalPosition.x
      value: 0
      objectReference: {fileID: 0}
    - target: {fileID: 4489680339045900, guid: 9e3b072523c1f46e3b215aac8f1a447b, type: 3}
      propertyPath: m_LocalPosition.y
      value: 0
      objectReference: {fileID: 0}
    - target: {fileID: 4489680339045900, guid: 9e3b072523c1f46e3b215aac8f1a447b, type: 3}
      propertyPath: m_LocalPosition.z
      value: 12.7
      objectReference: {fileID: 0}
    - target: {fileID: 4489680339045900, guid: 9e3b072523c1f46e3b215aac8f1a447b, type: 3}
      propertyPath: m_LocalRotation.w
      value: 1
      objectReference: {fileID: 0}
    - target: {fileID: 4489680339045900, guid: 9e3b072523c1f46e3b215aac8f1a447b, type: 3}
      propertyPath: m_LocalRotation.x
      value: 0
      objectReference: {fileID: 0}
    - target: {fileID: 4489680339045900, guid: 9e3b072523c1f46e3b215aac8f1a447b, type: 3}
      propertyPath: m_LocalRotation.y
      value: 0
      objectReference: {fileID: 0}
    - target: {fileID: 4489680339045900, guid: 9e3b072523c1f46e3b215aac8f1a447b, type: 3}
      propertyPath: m_LocalRotation.z
      value: 0
      objectReference: {fileID: 0}
    - target: {fileID: 114452858366228090, guid: 9e3b072523c1f46e3b215aac8f1a447b, type: 3}
      propertyPath: graphData.groundColliderLayerName
      value: Water
      objectReference: {fileID: 0}
    - target: {fileID: 114452858366228090, guid: 9e3b072523c1f46e3b215aac8f1a447b, type: 3}
      propertyPath: graphData.nodes.Array.data[0].isOpen
      value: 1
      objectReference: {fileID: 0}
    - target: {fileID: 114452858366228090, guid: 9e3b072523c1f46e3b215aac8f1a447b, type: 3}
      propertyPath: graphData.nodes.Array.data[1].isOpen
      value: 1
      objectReference: {fileID: 0}
    - target: {fileID: 114452858366228090, guid: 9e3b072523c1f46e3b215aac8f1a447b, type: 3}
      propertyPath: graphData.nodes.Array.data[2].isOpen
      value: 1
      objectReference: {fileID: 0}
    - target: {fileID: 114452858366228090, guid: 9e3b072523c1f46e3b215aac8f1a447b, type: 3}
      propertyPath: graphData.nodes.Array.data[3].isOpen
      value: 1
      objectReference: {fileID: 0}
    - target: {fileID: 114452858366228090, guid: 9e3b072523c1f46e3b215aac8f1a447b, type: 3}
      propertyPath: graphData.nodes.Array.data[4].isOpen
      value: 1
      objectReference: {fileID: 0}
    - target: {fileID: 114452858366228090, guid: 9e3b072523c1f46e3b215aac8f1a447b, type: 3}
      propertyPath: graphData.nodes.Array.data[5].isOpen
      value: 1
      objectReference: {fileID: 0}
    - target: {fileID: 114452858366228090, guid: 9e3b072523c1f46e3b215aac8f1a447b, type: 3}
      propertyPath: graphData.nodes.Array.data[6].isOpen
      value: 1
      objectReference: {fileID: 0}
    - target: {fileID: 114452858366228090, guid: 9e3b072523c1f46e3b215aac8f1a447b, type: 3}
      propertyPath: graphData.nodes.Array.data[7].isOpen
      value: 1
      objectReference: {fileID: 0}
    - target: {fileID: 114452858366228090, guid: 9e3b072523c1f46e3b215aac8f1a447b, type: 3}
      propertyPath: graphData.nodes.Array.data[8].isOpen
      value: 1
      objectReference: {fileID: 0}
    - target: {fileID: 114452858366228090, guid: 9e3b072523c1f46e3b215aac8f1a447b, type: 3}
      propertyPath: graphData.nodes.Array.data[9].isOpen
      value: 1
      objectReference: {fileID: 0}
    - target: {fileID: 114452858366228090, guid: 9e3b072523c1f46e3b215aac8f1a447b, type: 3}
      propertyPath: graphData.paths.Array.data[0].isOpen
      value: 1
      objectReference: {fileID: 0}
    - target: {fileID: 114452858366228090, guid: 9e3b072523c1f46e3b215aac8f1a447b, type: 3}
      propertyPath: graphData.paths.Array.data[1].isOpen
      value: 1
      objectReference: {fileID: 0}
    - target: {fileID: 114452858366228090, guid: 9e3b072523c1f46e3b215aac8f1a447b, type: 3}
      propertyPath: graphData.paths.Array.data[2].isOpen
      value: 1
      objectReference: {fileID: 0}
    - target: {fileID: 114452858366228090, guid: 9e3b072523c1f46e3b215aac8f1a447b, type: 3}
      propertyPath: graphData.paths.Array.data[3].isOpen
      value: 1
      objectReference: {fileID: 0}
    - target: {fileID: 114452858366228090, guid: 9e3b072523c1f46e3b215aac8f1a447b, type: 3}
      propertyPath: graphData.paths.Array.data[4].isOpen
      value: 1
      objectReference: {fileID: 0}
    - target: {fileID: 114452858366228090, guid: 9e3b072523c1f46e3b215aac8f1a447b, type: 3}
      propertyPath: graphData.paths.Array.data[5].isOpen
      value: 1
      objectReference: {fileID: 0}
    - target: {fileID: 114452858366228090, guid: 9e3b072523c1f46e3b215aac8f1a447b, type: 3}
      propertyPath: graphData.paths.Array.data[6].isOpen
      value: 1
      objectReference: {fileID: 0}
    - target: {fileID: 114452858366228090, guid: 9e3b072523c1f46e3b215aac8f1a447b, type: 3}
      propertyPath: graphData.paths.Array.data[7].isOpen
      value: 1
      objectReference: {fileID: 0}
    - target: {fileID: 114452858366228090, guid: 9e3b072523c1f46e3b215aac8f1a447b, type: 3}
      propertyPath: graphData.paths.Array.data[8].isOpen
      value: 1
      objectReference: {fileID: 0}
    - target: {fileID: 114452858366228090, guid: 9e3b072523c1f46e3b215aac8f1a447b, type: 3}
      propertyPath: graphData.paths.Array.data[9].isOpen
      value: 1
      objectReference: {fileID: 0}
    - target: {fileID: 114452858366228090, guid: 9e3b072523c1f46e3b215aac8f1a447b, type: 3}
      propertyPath: graphData.nodes.Array.data[10].isOpen
      value: 1
      objectReference: {fileID: 0}
    - target: {fileID: 114452858366228090, guid: 9e3b072523c1f46e3b215aac8f1a447b, type: 3}
      propertyPath: graphData.nodes.Array.data[11].isOpen
      value: 1
      objectReference: {fileID: 0}
    - target: {fileID: 114452858366228090, guid: 9e3b072523c1f46e3b215aac8f1a447b, type: 3}
      propertyPath: graphData.nodes.Array.data[12].isOpen
      value: 1
      objectReference: {fileID: 0}
    - target: {fileID: 114452858366228090, guid: 9e3b072523c1f46e3b215aac8f1a447b, type: 3}
      propertyPath: graphData.nodes.Array.data[13].isOpen
      value: 1
      objectReference: {fileID: 0}
    - target: {fileID: 114452858366228090, guid: 9e3b072523c1f46e3b215aac8f1a447b, type: 3}
      propertyPath: graphData.nodes.Array.data[14].isOpen
      value: 1
      objectReference: {fileID: 0}
    - target: {fileID: 114452858366228090, guid: 9e3b072523c1f46e3b215aac8f1a447b, type: 3}
      propertyPath: graphData.nodes.Array.data[15].isOpen
      value: 1
      objectReference: {fileID: 0}
    - target: {fileID: 114452858366228090, guid: 9e3b072523c1f46e3b215aac8f1a447b, type: 3}
      propertyPath: graphData.paths.Array.data[10].isOpen
      value: 1
      objectReference: {fileID: 0}
    - target: {fileID: 114452858366228090, guid: 9e3b072523c1f46e3b215aac8f1a447b, type: 3}
      propertyPath: graphData.paths.Array.data[11].isOpen
      value: 1
      objectReference: {fileID: 0}
    - target: {fileID: 114452858366228090, guid: 9e3b072523c1f46e3b215aac8f1a447b, type: 3}
      propertyPath: graphData.paths.Array.data[12].isOpen
      value: 1
      objectReference: {fileID: 0}
    - target: {fileID: 114452858366228090, guid: 9e3b072523c1f46e3b215aac8f1a447b, type: 3}
      propertyPath: graphData.paths.Array.data[13].isOpen
      value: 1
      objectReference: {fileID: 0}
    - target: {fileID: 114452858366228090, guid: 9e3b072523c1f46e3b215aac8f1a447b, type: 3}
      propertyPath: graphData.paths.Array.data[14].isOpen
      value: 1
      objectReference: {fileID: 0}
    - target: {fileID: 114452858366228090, guid: 9e3b072523c1f46e3b215aac8f1a447b, type: 3}
      propertyPath: graphData.paths.Array.data[15].isOpen
      value: 1
      objectReference: {fileID: 0}
    - target: {fileID: 114452858366228090, guid: 9e3b072523c1f46e3b215aac8f1a447b, type: 3}
      propertyPath: graphData.paths.Array.data[16].isOpen
      value: 1
      objectReference: {fileID: 0}
    - target: {fileID: 114452858366228090, guid: 9e3b072523c1f46e3b215aac8f1a447b, type: 3}
      propertyPath: graphData.paths.Array.data[17].isOpen
      value: 1
      objectReference: {fileID: 0}
    - target: {fileID: 114452858366228090, guid: 9e3b072523c1f46e3b215aac8f1a447b, type: 3}
      propertyPath: graphData.paths.Array.data[18].isOpen
      value: 1
      objectReference: {fileID: 0}
    - target: {fileID: 114452858366228090, guid: 9e3b072523c1f46e3b215aac8f1a447b, type: 3}
      propertyPath: graphData.paths.Array.data[19].isOpen
      value: 1
      objectReference: {fileID: 0}
    - target: {fileID: 114452858366228090, guid: 9e3b072523c1f46e3b215aac8f1a447b, type: 3}
      propertyPath: graphData.paths.Array.data[20].isOpen
      value: 1
      objectReference: {fileID: 0}
    - target: {fileID: 114452858366228090, guid: 9e3b072523c1f46e3b215aac8f1a447b, type: 3}
      propertyPath: graphData.paths.Array.data[21].isOpen
      value: 1
      objectReference: {fileID: 0}
    - target: {fileID: 114452858366228090, guid: 9e3b072523c1f46e3b215aac8f1a447b, type: 3}
      propertyPath: graphData.paths.Array.data[22].isOpen
      value: 1
      objectReference: {fileID: 0}
    - target: {fileID: 114452858366228090, guid: 9e3b072523c1f46e3b215aac8f1a447b, type: 3}
      propertyPath: graphData.paths.Array.data[23].isOpen
      value: 1
      objectReference: {fileID: 0}
    - target: {fileID: 114452858366228090, guid: 9e3b072523c1f46e3b215aac8f1a447b, type: 3}
      propertyPath: graphData.paths.Array.data[24].isOpen
      value: 1
      objectReference: {fileID: 0}
    m_RemovedComponents: []
  m_SourcePrefab: {fileID: 100100000, guid: 9e3b072523c1f46e3b215aac8f1a447b, type: 3}
--- !u!1 &1430356800
GameObject:
  m_ObjectHideFlags: 0
  m_CorrespondingSourceObject: {fileID: 0}
  m_PrefabInstance: {fileID: 0}
  m_PrefabAsset: {fileID: 0}
  serializedVersion: 6
  m_Component:
  - component: {fileID: 1430356802}
  - component: {fileID: 1430356801}
  m_Layer: 0
  m_Name: Directional Light
  m_TagString: Untagged
  m_Icon: {fileID: 0}
  m_NavMeshLayer: 0
  m_StaticEditorFlags: 0
  m_IsActive: 1
--- !u!108 &1430356801
Light:
  m_ObjectHideFlags: 0
  m_CorrespondingSourceObject: {fileID: 0}
  m_PrefabInstance: {fileID: 0}
  m_PrefabAsset: {fileID: 0}
  m_GameObject: {fileID: 1430356800}
  m_Enabled: 1
  serializedVersion: 10
  m_Type: 1
  m_Shape: 0
  m_Color: {r: 1, g: 1, b: 1, a: 1}
  m_Intensity: 0.5
  m_Range: 1000
  m_SpotAngle: 30
  m_InnerSpotAngle: 21.80208
  m_CookieSize: 10
  m_Shadows:
    m_Type: 1
    m_Resolution: -1
    m_CustomResolution: -1
    m_Strength: 1
    m_Bias: 0
    m_NormalBias: 1.04
    m_NearPlane: 1.32
    m_CullingMatrixOverride:
      e00: 1
      e01: 0
      e02: 0
      e03: 0
      e10: 0
      e11: 1
      e12: 0
      e13: 0
      e20: 0
      e21: 0
      e22: 1
      e23: 0
      e30: 0
      e31: 0
      e32: 0
      e33: 1
    m_UseCullingMatrixOverride: 0
  m_Cookie: {fileID: 0}
  m_DrawHalo: 0
  m_Flare: {fileID: 0}
  m_RenderMode: 0
  m_CullingMask:
    serializedVersion: 2
    m_Bits: 4294967295
  m_RenderingLayerMask: 1
  m_Lightmapping: 4
  m_LightShadowCasterMode: 0
  m_AreaSize: {x: 1, y: 1}
  m_BounceIntensity: 1
  m_ColorTemperature: 6570
  m_UseColorTemperature: 0
  m_BoundingSphereOverride: {x: 0, y: 0, z: 0, w: 0}
  m_UseBoundingSphereOverride: 0
  m_UseViewFrustumForShadowCasterCull: 1
  m_ShadowRadius: 0
  m_ShadowAngle: 0
--- !u!4 &1430356802
Transform:
  m_ObjectHideFlags: 0
  m_CorrespondingSourceObject: {fileID: 0}
  m_PrefabInstance: {fileID: 0}
  m_PrefabAsset: {fileID: 0}
  m_GameObject: {fileID: 1430356800}
  m_LocalRotation: {x: 0.74168324, y: 0, z: 0, w: 0.6707504}
  m_LocalPosition: {x: -223, y: 166.69, z: -166.1}
  m_LocalScale: {x: 1, y: 1, z: 1}
  m_Children: []
  m_Father: {fileID: 0}
  m_RootOrder: 0
  m_LocalEulerAnglesHint: {x: 95.75, y: 0, z: 0}
--- !u!1 &1611633508
GameObject:
  m_ObjectHideFlags: 0
  m_CorrespondingSourceObject: {fileID: 0}
  m_PrefabInstance: {fileID: 0}
  m_PrefabAsset: {fileID: 0}
  serializedVersion: 6
  m_Component:
  - component: {fileID: 1611633509}
  - component: {fileID: 1611633511}
  - component: {fileID: 1611633510}
  m_Layer: 4
  m_Name: Terrain
  m_TagString: Untagged
  m_Icon: {fileID: 0}
  m_NavMeshLayer: 0
  m_StaticEditorFlags: 4294967294
  m_IsActive: 1
--- !u!4 &1611633509
Transform:
  m_ObjectHideFlags: 0
  m_CorrespondingSourceObject: {fileID: 0}
  m_PrefabInstance: {fileID: 0}
  m_PrefabAsset: {fileID: 0}
  m_GameObject: {fileID: 1611633508}
  m_LocalRotation: {x: -0, y: -0, z: -0, w: 1}
  m_LocalPosition: {x: -295, y: -2, z: -183}
  m_LocalScale: {x: 1, y: 1, z: 1}
  m_Children: []
  m_Father: {fileID: 219125336}
  m_RootOrder: 1
  m_LocalEulerAnglesHint: {x: 0, y: 0, z: 0}
--- !u!154 &1611633510
TerrainCollider:
  m_ObjectHideFlags: 0
  m_CorrespondingSourceObject: {fileID: 0}
  m_PrefabInstance: {fileID: 0}
  m_PrefabAsset: {fileID: 0}
  m_GameObject: {fileID: 1611633508}
  m_Material: {fileID: 0}
  m_Enabled: 1
  m_TerrainData: {fileID: 15600000, guid: 7a7721708e6a2447ab0bce47b5e70395, type: 2}
  m_EnableTreeColliders: 1
--- !u!218 &1611633511
Terrain:
  m_ObjectHideFlags: 0
  m_CorrespondingSourceObject: {fileID: 0}
  m_PrefabInstance: {fileID: 0}
  m_PrefabAsset: {fileID: 0}
  m_GameObject: {fileID: 1611633508}
  m_Enabled: 1
  serializedVersion: 6
  m_TerrainData: {fileID: 15600000, guid: 7a7721708e6a2447ab0bce47b5e70395, type: 2}
  m_TreeDistance: 2000
  m_TreeBillboardDistance: 50
  m_TreeCrossFadeLength: 5
  m_TreeMaximumFullLODCount: 50
  m_DetailObjectDistance: 80
  m_DetailObjectDensity: 1
  m_HeightmapPixelError: 5
  m_SplatMapDistance: 1000
  m_HeightmapMaximumLOD: 0
  m_ShadowCastingMode: 2
  m_DrawHeightmap: 1
  m_DrawInstanced: 0
  m_DrawTreesAndFoliage: 1
  m_ReflectionProbeUsage: 1
  m_MaterialTemplate: {fileID: 10652, guid: 0000000000000000f000000000000000, type: 0}
  m_BakeLightProbesForTrees: 1
  m_PreserveTreePrototypeLayers: 0
  m_DeringLightProbesForTrees: 1
  m_ScaleInLightmap: 0.0512
  m_LightmapParameters: {fileID: 15203, guid: 0000000000000000f000000000000000, type: 0}
  m_GroupingID: 0
  m_RenderingLayerMask: 1
  m_AllowAutoConnect: 0
