%YAML 1.1
%TAG !u! tag:unity3d.com,2011:
--- !u!1001 &323874681905658767
PrefabInstance:
  m_ObjectHideFlags: 0
  serializedVersion: 2
  m_Modification:
    m_TransformParent: {fileID: 0}
    m_Modifications:
    - target: {fileID: 7378802872657225006, guid: e6d92dc59365bb144bfe758d59f75998, type: 3}
      propertyPath: m_RootOrder
      value: 0
      objectReference: {fileID: 0}
    - target: {fileID: 7378802872657225006, guid: e6d92dc59365bb144bfe758d59f75998, type: 3}
      propertyPath: m_LocalPosition.x
      value: 0
      objectReference: {fileID: 0}
    - target: {fileID: 7378802872657225006, guid: e6d92dc59365bb144bfe758d59f75998, type: 3}
      propertyPath: m_LocalPosition.y
      value: 0
      objectReference: {fileID: 0}
    - target: {fileID: 7378802872657225006, guid: e6d92dc59365bb144bfe758d59f75998, type: 3}
      propertyPath: m_LocalPosition.z
      value: 0
      objectReference: {fileID: 0}
    - target: {fileID: 7378802872657225006, guid: e6d92dc59365bb144bfe758d59f75998, type: 3}
      propertyPath: m_LocalRotation.w
      value: 1
      objectReference: {fileID: 0}
    - target: {fileID: 7378802872657225006, guid: e6d92dc59365bb144bfe758d59f75998, type: 3}
      propertyPath: m_LocalRotation.x
      value: 0
      objectReference: {fileID: 0}
    - target: {fileID: 7378802872657225006, guid: e6d92dc59365bb144bfe758d59f75998, type: 3}
      propertyPath: m_LocalRotation.y
      value: 0
      objectReference: {fileID: 0}
    - target: {fileID: 7378802872657225006, guid: e6d92dc59365bb144bfe758d59f75998, type: 3}
      propertyPath: m_LocalRotation.z
      value: 0
      objectReference: {fileID: 0}
    - target: {fileID: 7378802872657225006, guid: e6d92dc59365bb144bfe758d59f75998, type: 3}
      propertyPath: m_LocalEulerAnglesHint.x
      value: 0
      objectReference: {fileID: 0}
    - target: {fileID: 7378802872657225006, guid: e6d92dc59365bb144bfe758d59f75998, type: 3}
      propertyPath: m_LocalEulerAnglesHint.y
      value: 0
      objectReference: {fileID: 0}
    - target: {fileID: 7378802872657225006, guid: e6d92dc59365bb144bfe758d59f75998, type: 3}
      propertyPath: m_LocalEulerAnglesHint.z
      value: 0
      objectReference: {fileID: 0}
    - target: {fileID: 8110875504836319856, guid: e6d92dc59365bb144bfe758d59f75998, type: 3}
      propertyPath: m_Name
      value: Plane
      objectReference: {fileID: 0}
    m_RemovedComponents: []
  m_SourcePrefab: {fileID: 100100000, guid: e6d92dc59365bb144bfe758d59f75998, type: 3}
